module gitlab.oit.duke.edu/devil-ops/akactl

go 1.23

require (
	github.com/charmbracelet/log v0.4.0
	github.com/drewstinnett/gout-cobra v0.2.0
	github.com/drewstinnett/gout/v2 v2.3.0
	github.com/mitchellh/go-homedir v1.1.0
	github.com/spf13/cobra v1.8.1
	github.com/spf13/viper v1.19.0
	gitlab.oit.duke.edu/devil-ops/aka-sdk v0.4.0
)

require (
	github.com/aymanbagabas/go-osc52/v2 v2.0.1 // indirect
	github.com/charmbracelet/lipgloss v0.13.0 // indirect
	github.com/charmbracelet/x/ansi v0.3.2 // indirect
	github.com/fsnotify/fsnotify v1.7.0 // indirect
	github.com/go-logfmt/logfmt v0.6.0 // indirect
	github.com/hashicorp/hcl v1.0.0 // indirect
	github.com/inconshreveable/mousetrap v1.1.0 // indirect
	github.com/lucasb-eyer/go-colorful v1.2.0 // indirect
	github.com/magiconair/properties v1.8.7 // indirect
	github.com/mattn/go-isatty v0.0.20 // indirect
	github.com/mattn/go-runewidth v0.0.16 // indirect
	github.com/mitchellh/mapstructure v1.5.0 // indirect
	github.com/muesli/termenv v0.15.2 // indirect
	github.com/pelletier/go-toml/v2 v2.2.3 // indirect
	github.com/rivo/uniseg v0.4.7 // indirect
	github.com/sagikazarmark/locafero v0.6.0 // indirect
	github.com/sagikazarmark/slog-shim v0.1.0 // indirect
	github.com/sourcegraph/conc v0.3.0 // indirect
	github.com/spf13/afero v1.11.0 // indirect
	github.com/spf13/cast v1.7.0 // indirect
	github.com/spf13/pflag v1.0.5 // indirect
	github.com/subosito/gotenv v1.6.0 // indirect
	go.uber.org/multierr v1.11.0 // indirect
	golang.org/x/exp v0.0.0-20241009180824-f66d83c29e7c // indirect
	golang.org/x/sys v0.26.0 // indirect
	golang.org/x/text v0.19.0 // indirect
	gopkg.in/ini.v1 v1.67.0 // indirect
	gopkg.in/yaml.v3 v3.0.1 // indirect
	moul.io/http2curl/v2 v2.3.0 // indirect
)
